﻿[
    {
        "_id":"c-08",
        "_parentId":"b-100",
        "_type":"component",
        "_component":"text",
        "_classes":"",
        "_layout":"full",
        "title":"Genel Bakış",
        "displayTitle":"",
        "body":"Dijital pazarlama söz konusu olduğunda, diğer temel işletme hedeflerine odaklanmak yerine reklam kampanyalarını manuel olarak oluşturmak, işletme Sayfanızı yönetmek, yeni potansiyel müşteriler bulmaya çalışmak gibi işlerle meşgul olurken değerli zamanınızı kaybetme riskiniz çok yüksektir. Süreci kolaylaştırmak için, Facebook ve Instagram Pazarlama Ortağı programımızın üyeleri olan üçüncü taraf hizmet sağlayıcılarla çalışabilirsiniz.",
        "instruction":"",
        "_pageLevelProgress": {
        "_isEnabled": true
        }
    },
    {
        "_id":"c-09",
        "_parentId":"b-100",
        "_type":"component",
        "_component":"text",
        "_classes":"",
        "_layout":"left",
        "title":"Genel Bakış",
        "displayTitle":"",
        "body":"Bu programlar, reklamverenlerin Facebook ve Instagram'da reklam yayınlamayı kolay hale getiren ve aynı zamanda ihtiyaçlarınıza uygun özel çözümler yaratmak üzere yönetim hizmetleri sunan dünya çapındaki Ortaklardan<sup>*</sup> oluşan bir topluluğa erişebilmesi için oluşturuldu. Bu Ortaklar, yedi uzmanlığın bir veya daha fazlasında yeteneklerini sergileyerek Facebook veya Instagram Pazarlama Ortağı rozeti (bu konudan daha sonra detaylı olarak bahsedeceğiz) kazanmışlardır ve devamlı olarak değişen ve gelişen platformumuzun en son araçları ve en iyi uygulamaları hakkında güncel bilgilere sahiptirler.<hr><cite><sup>*</sup>Not: Bu kurs boyunca, \"Ortak\" ifadesini Facebook veya Instagram Pazarlama Ortağı rozeti kazanmış şirketler için kullanıyor olacağız.</cite>",
        "instruction":"",
        "_pageLevelProgress": {
        "_isEnabled": false
        }
    },
    {
        "_id":"c-10",
        "_parentId":"b-100",
        "_type":"component",
        "_component":"graphic",
        "_classes":"",
        "_layout":"right",
        "title":"",
        "displayTitle":"",
        "body":"",
        "instruction":"",
        "_graphic": {
        "alt": "alt text",
        "large": "course/en/images/01_overview/partners.png",
        "small": "course/en/images/01_overview/partners.png",
        "attribution":""
        }
    },
    {
        "_id":"c-11",
        "_parentId":"b-200",
        "_type":"component",
        "_component":"animate-message",
        "_classes":"",
        "_layout":"full",
        "title":"İnovasyon Büyümeyi Hızlandırır",
        "displayTitle":"İnovasyon Büyümeyi Hızlandırır",
        "body":"",
        "instruction":"",
        "titleAnimation":"transition.slideRightIn",
        "bodyAnimation":"transition.slideLeftIn",
        "backgroundColor":"#ffffff,#ffffff,#ffffff",
        "_spacing":"1px",
        "_pageLevelProgress": {
        "_isEnabled": true
        },
        "_items": [
        {
            "item_title": "",
            "body":"<br><img src='course/en/animations/marketo/smart.png'><br><b>KİLİT VERİLERE ERİŞİN:</b> Ortaklar, daha iyi pazarlama kararlarına destek olacak gerçek zamanlı performans izleme, akıllı kampanya optimizasyonu ve zengin istatistik panoları sunar."
        }
    ]
    },
    {
        "_id":"c-12",
        "_parentId":"b-200",
        "_type":"component",
        "_component":"animate-message",
        "_classes":"",
        "_layout":"full",
        "title":"Daha fazla araca ulaşın",
        "displayTitle":"",
        "body":"",
        "instruction":"",
        "titleAnimation":"transition.slideRightIn",
        "bodyAnimation":"transition.slideLeftIn",
        "backgroundColor":"#ffffff,#ffffff,#ffffff",
        "_spacing":"1px",
        "_pageLevelProgress": {
        "_isEnabled": false
        },
        "_items": [
        {
            "item_title": "",
            "body":"<img src='course/en/animations/marketo/more.png'><br><b>DAHA FAZLA ARACA ULAŞIN:</b> Ortaklar, daha iyi sonuçlara ulaşmanıza yardımcı olmak için iş akışı otomasyonu ve geniş ölçekte kreatif optimizasyonu sunabilir."
        }
    ]
    },
    {
        "_id":"c-13",
        "_parentId":"b-200",
        "_type":"component",
        "_component":"animate-message",
        "_classes":"",
        "_layout":"full",
        "title":"Ortaklar Size Nasıl Yardımcı Olabilir?",
        "displayTitle":"",
        "body":"",
        "instruction":"",
        "titleAnimation":"transition.slideRightIn",
        "bodyAnimation":"transition.slideLeftIn",
        "backgroundColor":"#ffffff,#ffffff,#ffffff",
        "_spacing":"1px",
        "_pageLevelProgress": {
        "_isEnabled": false
        },
        "_items": [
        {
            "item_title": "",
            "body":"<img src='course/en/animations/marketo/edge.png'><br><b>ÖNE GEÇİN:</b> Ortaklar Facebook ve Instagram kampanyalarına harici veri entegrasyonu sağlayabilir ve sektöre özel araç ve çözümler sunabilir."
        }
    ]
    },
    {
        "_id":"c-30",
        "_parentId":"b-300",
        "_type":"component",
        "_component":"co-jump",
        "_classes":"color-test",
        "_preLinkBody":"İlk olarak bu Ortakların nasıl Rozet kazandıklarını ve ",
        "_linkBody":"destekledikleri uzmanlıkları",
        "_postLinkBody":" öğrenelim.",
        "_link":"#/id/co-20",
        "_graphic":"adapt/css/assets/icon_nextPage.png",
        "_pageLevelProgress": {
            "_isEnabled": false
        }
    },
    {
        "_id":"c-40",
        "_parentId":"b-400",
        "_type":"component",
        "_component":"text",
        "_classes":"",
        "_layout":"full",
        "title":"Rozet ve Uzmanlıklar",
        "displayTitle":"",
        "body":"Sadece beceri, teknoloji ve müşteri hizmetleri dahil çeşitli alanlardaki koşullarımızı karşılayan şirketler Facebook veya Instagram Pazarlama Ortağı rozeti kazanır. Tüm hizmet sağlayıcıların, aşağıdaki uzmanlıklardan birinde veya daha fazlasında teknoloji ve beceriye dayalı koşullarımızı karşılaması gerekir.<br><br> <ul><li>Reklam Teknolojisi</li><li>Topluluk Yönetimi</li><li>İçerik Pazarlama</li><li>Küçük İşletme Çözümleri</li><li>Hedef Kitleleri Kullanmaya Başlama</li><li>Hedef Kitle Veri Sağlayıcıları</li><li>Ölçüm</li></ol></li><br><br><i>Not:</i> Şu anda Instagram Pazarlama Ortakları Reklam Teknolojisi, Topluluk Yönetimi ve İçerik Pazarlama alanlarında rozet kazanabilmektedir.",
        "instruction":"",
        "_pageLevelProgress": {
        "_isEnabled": true
        }
    },
    {
        "_id":"c-45",
        "_parentId":"b-400",
        "_type":"component",
            "_component":"hotgrid",
            "_classes":"",
            "_layout":"full",
            "title":"",
            "displayTitle":"",
            "body":"İlgili uzmanlıkta bir hizmet sağlayıcının işletme hedeflerinize ulaşmanıza nasıl yardımcı olabileceğini öğrenmek için aşağıdaki simgelere tıklayın.",
            "instruction":"",
            "_columns":3,
          "_items": [
                {
            "title": "Reklam Teknolojisi",
            "body": "Kampanyalarınıza güç katmak için ileri seviye teknolojilere erişin. Her birinde A/B testi yaparak yüzlerce Facebook kampanyası yapmak yerine, Reklam Teknolojisi Ortaklarımızın bu sorunu verimli şekilde çözen otomatik çözümlerini kullanın.<br><br>Kilit Avantajlar:<br><li>Harici verileri entegre ederek benzersiz ve kişiselleştirilmiş bir reklam deneyimi sunun<li>Daha detaylı analizlerle reklamlarınızın etkisine yönelik daha çok istatistiğe ulaşın<li>Facebook Power Editor'ın ötesine geçen özellikler elde edin",
            "itemAria": "Öğe 1. Açmak için burayı seçin.",
            "_graphic": {
                "src": "course/en/images/market/comp3/02.png",
                "srcHover":"course/en/images/market/comp3/02.png",
                "srcVisited":"course/en/images/market/comp3/02.png",
                "alt": "Reklam Teknolojisi",
                "title": "Reklam Teknolojisi"
            },
             "_itemGraphic": {
                "src": "course/en/images/market/comp3a/02.png",
                "alt": ""
            }
        },
      {
            "title": "Topluluk Yönetimi",
            "body": "Çevrimiçi topluluğunuzla ilgilenmek ve etkileşimde bulunmak için yardım alın. Sayfanızdaki tüm yorum, mesaj ve konuşmaları dikkatle takip etmek çok zaman alır. Topluluk Yönetimi Ortaklarının, Sayfaları ve müşteri konuşmalarını yönetmek için gelişmiş araçlara erişimi vardır ve bu da, özellikle birden fazla konuma ve/veya Sayfaya sahip işletmeler için son derece faydalıdır.<br><br>Kilit Avantajlar:<li>Önceliklendirme, atama ve yanıt verme yöntemleriyle, işletmenize gelen mesajların kontrolünü elinize alın<li>Tutarlı bir marka mesajı verin ve tutarlı bir tonda konuşun<li>Müşteri hizmetlerinde verimlilik sağlamak için bir Sayfadan faydalanın",
            "itemAria": "Öğe 1. Açmak için burayı seçin.",
            "_graphic": {
                "src": "course/en/images/market/comp3/04.png",
                "srcHover":"course/en/images/market/comp3/04.png",
                "srcVisited":"course/en/images/market/comp3/04.png",
                "alt": "",
                "title": "Topluluk Yönetimi"
            },
             "_itemGraphic": {
                "src": "course/en/images/market/comp3a/04.png",
                "alt": ""
            }
        },
         {
            "title": "İçerik Pazarlama",
            "body": "Daha fazla içeriği daha az çabayla oluşturmak için yardım alın. Tüm başarılı reklam kampanyalarının ilk adımı, potansiyel müşterilere hitap eden harika içeriklerdir ancak mükemmel metni yazmak hiç kolay olmayabilir. İçerik Pazarlama Ortakları içerikleri kolayca oluşturmanıza, düzenlemenize ve sunmanıza yardımcı olur.<br><br>Kilit Avantajlar:<li>İçerik oluşturmayı otomatikleştirin<li>Birden fazla boyut ve formatta kreatifleri hızla üretin<li>Küresel bir içerik oluşturucu ağından tasarım desteği alın<li>Müşterilerin oluşturduğu yüksek dönüşüm oranlı görsellerden faydalanın",
            "itemAria": "Öğe 1. Açmak için burayı seçin.",
            "_graphic": {
                "src": "course/en/images/market/comp3/05.png",
                "srcHover":"course/en/images/market/comp3/05.png",
                "srcVisited":"course/en/images/market/comp3/05.png",
                "alt": "",
                "title": "İçerik Pazarlama"
            },
             "_itemGraphic": {
                "src": "course/en/images/market/comp3a/05.png",
                "alt": ""
            }
        }, {
            "title": "Ölçüm",
            "body": "Mobil uygulamanızın performansını ölçmek için yardım alın. Reklamını yaptığınız indirimin sitede mi yoksa mobilde mi daha fazla dönüşüm elde ettiğini anlamakta zorlanıyor musunuz? Ölçüm Ortakları, işletmelerin tüm kanal ve cihazlar için daha iyi istatistikler elde edebilmesi için kampanyalara yönelik daha güçlü ölçüm ve analizler sağlayabilir.<br><br>Kilit Avantajlar:<li>Ayrıntılı ölçümler ve değer analizleriyle mobil uygulamalarınız üzerindeki kullanıcı davranışlarını anlayın<li>Kullanıcıların mobilde uygulama içi hareketlerine dayalı olarak en iyi sonuçlara ulaşmak için medya içeriklerinizi optimize edin<li>Mobil uygulamanızı kullanan kişilerin her birinin toplam değerini (LTV) ölçün",
            "itemAria": "Öğe 1. Açmak için burayı seçin.",
            "_graphic": {
                "src": "course/en/images/market/comp3/09.png",
                "srcHover":"course/en/images/market/comp3/09.png",
                "srcVisited":"course/en/images/market/comp3/09.png",
                "alt": "",
                "title": "Ölçüm"
            },
             "_itemGraphic": {
                "src": "course/en/images/market/comp3a/09.png",
                "alt": ""
            }
        }
        ,   {
            "title": "Hedef Kitleleri Kullanmaya Başlama",
            "body": "Facebook'ta en iyi müşterilerinizi ve onlara benzeyen kişileri bulmak için yardım alın. İşletmeler müşterileri hakkında bol miktarda veriye sahiptir. O halde aynı müşterilere neden Facebook'ta erişmeyesiniz? Hedef Kitleleri Kullanmaya Başlama Ortakları, işletmelerin dönüşüm gerçekleştirme olasılığı daha yüksek kişileri hedefleyebilmesi için mevcut müşterilerine dayalı olarak hedef kitleler oluşturmalarına yardımcı olabilir.<br><br>Kilit Avantajlar:<li>Hedefleme veya ölçüm için müşteri verilerinizi kullanmaya başlayın<li>Facebook, Instagram ve Audience Network'teki müşteri verilerinden faydalanın<li>Pazarlama mesajlarınızın tüm kanal, yayıncı ve cihazlarda tutarlı olmasını sağlayın",
            "itemAria": "Öğe 1. Açmak için burayı seçin.",
            "_graphic": {
                "src": "course/en/images/market/comp3/07.png",
                "srcHover":"course/en/images/market/comp3/07.png",
                "srcVisited":"course/en/images/market/comp3/07.png",
                "alt": "",
                "title": "Hedef Kitleleri Kullanmaya Başlama"
            },
             "_itemGraphic": {
                "src": "course/en/images/market/comp3a/07.png",
                "alt": ""
            }
        },
         {
            "title": "Hedef Kitle Veri Sağlayıcıları",
            "body": "Ürün veya hizmetlerinizle en çok ilgilenen insanları bulmak için yardım alın. Üçüncü taraf verileri, şirket içi veriler kadar önemlidir ve hassas hedefleme için ilave bir boyut sağlar. Hedef Kitle Veri Sağlayıcı Ortakları, işletmelerin Facebook'taki temel hedef kitlelerini daha da geliştirmesi için değerli üçüncü taraf verilerden faydalanmasına yardımcı olabilir.<br><br>Kilit Avantajlar:<li>Yanıt verme olasılığı daha yüksek bir kitleye, devamlı olarak yenilenen içerikler sunmak üzere hedef kitle demografik bilgileri ile çevrimdışı verileri bir arada kullanın<li>Müşteri verilerine sahip olmasanız bile potansiyel müşterilere erişin<li>Güvenilir üçüncü taraf sağlayıcıların hedef kitle verilerine erişin",
            "itemAria": "Öğe 1. Açmak için burayı seçin.",
            "_graphic": {
                "src": "course/en/images/market/comp3/08.png",
                "srcHover":"course/en/images/market/comp3/08.png",
                "srcVisited":"course/en/images/market/comp3/08.png",
                "alt": "",
                "title": "Hedef Kitle Veri Sağlayıcıları"
            },
             "_itemGraphic": {
                "src": "course/en/images/market/comp3a/08.png",
                "alt": ""
            }
        }, {
            "title": "Küçük İşletme Çözümleri",
            "body": "CRM, e-posta ve pazarlama otomasyonunuzu güçlendirmek için yardım alın. Küçük işletmeler bize zamanlarının çok değerli olduklarını söylüyor. Küçük İşletme Çözüm Ortakları da onlar için internette müşteri bulmayı kolay hale getiriyor. Facebook Pazarlama Ortakları, reklam oluşturmaktan doğru müşterileri hedeflemeye kadar, küçük işletmelerin temel faaliyetlerine odaklanmasına yardımcı olabilir.<br><br>Kilit Avantajlar:<li>İş akışını otomatikleştirmek için mevcut CRM sistemlerini entegre edin<li>Pazarlama süreçlerini otomatikleştirerek ve insan iş yükünü azaltarak verimliliği yükseltin<li>Harcama alt limitlerini düşürün",
            "itemAria": "Öğe 1. Açmak için burayı seçin.",
            "_graphic": {
                "src": "course/en/images/market/comp3/06.png",
                "srcHover":"course/en/images/market/comp3/06.png",
                "srcVisited":"course/en/images/market/comp3/06.png",
                "alt": "",
                "title": "Küçük İşletme Çözümleri"
            },
             "_itemGraphic": {
                "src": "course/en/images/market/comp3a/06.png",
                "alt": ""
            }
        }
    ]
    },
    {
        "_id":"c-50",
        "_parentId":"b-500",
        "_type":"component",
        "_component":"text",
        "_classes":"",
        "_layout":"full",
        "title":"Reklam Teknolojisi ve Medya Satın Alma",
        "displayTitle":"",
        "body":"Reklam Teknolojisi ve Medya Satın Alma alanında uzmanlaşan Ortakların ayrıca ilgili sektör ve ülkedeki uzmanlıkları da ayrıntılı olarak değerlendirilir. Desteklenen sektörler:<br><br><li>Otomotiv<li>Hızlı Tüketim Malları (CPG)<li>E-ticaret<li>Eğitim<li>Enerji ve Kamu Hizmetleri<li>Eğlence<li>Finansal Hizmetler<li>Oyun<li>Devlet ve Siyaset<li>Sağlık<li>Kuruluşlar ve Dernekler<li>Profesyonel Hizmetler<li>Perakende<li>Teknoloji<li>Telekomünikasyon<li>Seyahat",
        "instruction":"",
        "_pageLevelProgress": {
        "_isEnabled": true
        }
    },
    {
        "_id":"c-60",
        "_parentId":"b-600",
        "_type":"component",
        "_component":"co-jump",
        "_classes":"color-test",
        "_preLinkBody":"",
        "_linkBody":"Doğru Ortağı seçmek",
        "_postLinkBody":" için hedefiniz, bütçeniz, hedef kitleniz gibi noktaları kesin olarak belirlemek yeterlidir. Şimdi bu konuları inceleyelim.",
        "_link":"#/id/co-50",
        "_graphic":"adapt/css/assets/icon_nextPage.png",
        "_pageLevelProgress": {
            "_isEnabled": false
        }
    },
    {
        "_id":"c-120",
        "_parentId":"b-1200",
        "_type":"component",
        "_component":"animate-message",
        "_classes":"",
        "_layout":"full",
        "title":"Bir Ortak Bulma",
        "displayTitle":"",
        "body":"Bir hizmet sağlayıcı seçmeden önce göz önünde bulundurmanız gereken birkaç kilit nokta vardır:",
        "instruction":"",
        "titleAnimation":"transition.slideRightIn",
        "bodyAnimation":"transition.slideLeftIn",
        "backgroundColor":"#ffffff,#ffffff,#ffffff",
        "_spacing":"1px",
        "_pageLevelProgress": {
        "_isEnabled": true
        },
        "_items": [
        {
            "item_title": "",
            "body":"<br><img src='course/en/images/03_choosing/1.png'><b>Reklam Verme Amaçları:</b> Facebook ve/veya Instagram'da reklam vererek hangi amaca ulaşmak istiyorsunuz?"
        }
    ]
    },
    {
        "_id":"c-130",
        "_parentId":"b-1200",
        "_type":"component",
        "_component":"animate-message",
        "_classes":"",
        "_layout":"full",
        "title":"",
        "displayTitle":"",
        "body":"",
        "instruction":"",
        "titleAnimation":"transition.slideRightIn",
        "bodyAnimation":"transition.slideLeftIn",
        "backgroundColor":"#ffffff,#ffffff,#ffffff",
        "_spacing":"1px",
        "_pageLevelProgress": {
        "_isEnabled": false
        },
        "_items": [
        {
            "item_title": "",
            "body":"<br><img src='course/en/images/03_choosing/2.png'><b>Pazar:</b> Hangi hedef kitlelere erişmek istiyorsunuz?"
        }
    ]
    },
    {
        "_id":"c-135",
        "_parentId":"b-1200",
        "_type":"component",
        "_component":"animate-message",
        "_classes":"",
        "_layout":"full",
        "title":"",
        "displayTitle":"",
        "body":"",
        "instruction":"",
        "titleAnimation":"transition.slideRightIn",
        "bodyAnimation":"transition.slideLeftIn",
        "backgroundColor":"#ffffff,#ffffff,#ffffff",
        "_spacing":"1px",
        "_pageLevelProgress": {
        "_isEnabled": false
        },
        "_items": [
        {
            "item_title": "",
            "body":"<br><img src='course/en/images/03_choosing/3.png'><b>Yönetim:</b> Reklam kampanyalarınızı kim yönetecek?"
        }
    ]
    },
    {
        "_id":"c-137",
        "_parentId":"b-1200",
        "_type":"component",
        "_component":"animate-message",
        "_classes":"",
        "_layout":"full",
        "title":"",
        "displayTitle":"",
        "body":"",
        "instruction":"",
        "titleAnimation":"transition.slideRightIn",
        "bodyAnimation":"transition.slideLeftIn",
        "backgroundColor":"#ffffff,#ffffff,#ffffff",
        "_spacing":"1px",
        "_pageLevelProgress": {
        "_isEnabled": false
        },
        "_items": [
        {
            "item_title": "",
            "body":"<br><img src='course/en/images/03_choosing/4.png'><b>Harcama:</b> Çalışmanızın sınırlarını belirleyen bütçe nedir?"
        }
    ]
    },
    {
        "_id":"c-139",
        "_parentId":"b-1200",
        "_type":"component",
        "_component":"animate-message",
        "_classes":"",
        "_layout":"full",
        "title":"",
        "displayTitle":"",
        "body":"",
        "instruction":"",
        "titleAnimation":"transition.slideRightIn",
        "bodyAnimation":"transition.slideLeftIn",
        "backgroundColor":"#ffffff,#ffffff,#ffffff",
        "_spacing":"1px",
        "_pageLevelProgress": {
        "_isEnabled": false
        },
        "_items": [
        {
            "item_title": "",
            "body":"<br><img src='course/en/images/03_choosing/5.png'><b>Entegrasyon:</b> Siz, hizmet sağlayıcı, ajansınız ve iç paydaşlarınız arasında nasıl bir ilişki istiyorsunuz?"
        }
    ]
    },
    {
        "_id":"c-140",
        "_parentId":"b-1200",
        "_type":"component",
        "_component":"animate-message",
        "_classes":"",
        "_layout":"full",
        "title":"",
        "displayTitle":"",
        "body":"",
        "instruction":"",
        "titleAnimation":"transition.slideRightIn",
        "bodyAnimation":"transition.slideLeftIn",
        "backgroundColor":"#ffffff,#ffffff,#ffffff",
        "_spacing":"1px",
        "_pageLevelProgress": {
        "_isEnabled": false
        },
        "_items": [
        {
            "item_title": "",
            "body":"<br><img src='course/en/images/03_choosing/6.png'><b>Self Servis - Yönetim Hizmeti:</b> Özel uygulamalar gibi gelişmiş çözümlere mi ihtiyacınız var, yoksa işleri kendisi yapan türde bir reklamveren misiniz? Gelin bu konuyu biraz daha inceleyelim."
        }
    ]
    },
    {
        "_id":"c-142",
        "_parentId":"b-1250",
        "_type":"component",
        "_component":"text",
        "_classes":"",
        "_layout":"full",
        "title":"Self Servis - Yönetim Hizmeti",
        "displayTitle":"Self Servis - Yönetim Hizmeti",
        "body":"Birçok Facebook ve Instagram Pazarlama Ortağı, platformlarımızda yayınlanan reklamların başarılı olmasını nasıl sağlayabileceklerini anlamak için ciddi zaman ayırır ve kapsamlı araştırmalar yapar. Müşterileri için yenilikçi çözümler geliştirmek üzere bu bilgileri kullanırlar ve bu sayede hem zaman hem de paradan tasarruf etmenizi sağlayabilirler.<br><br><b>Self Servis</b><br>İşleri kendisi yapmak isteyen ancak Facebook Power Editor'ın sunduğu araçlardan daha gelişmiş araçlar kullanmak isteyen bir reklamverenseniz, self servis araçlar sizin için iyi bir seçenek olabilir.<br><br>Self servis araçlar hemen hemen her amaç için kullanılabilir ve şunları içerir:<br><br><ul><li>Facebook Sayfaları oluşturma</li><li>Etkili görseller ve metinler yaratma</li><li>Doğru kişileri hedefleme</li><li>Reklam kampanyanızı analiz etme</li></ul><br><br><b>Yönetim Hizmeti</b><br>Daha yakın çalışan bir Facebook Pazarlama Ortağı tercih edersiniz veya mobil uygulama gibi özel bir çözüme ihtiyacınız varsa, yönetim hizmetleri büyük olasılıkla en iyi seçenektir.<br><br>Özel seçenekler ve yakın hizmetler pahalıymış gibi görünse de, bu şirketler yatırım getirisi garantileri sunabilir ve bu sayede yönetim hizmetlerine yatırım yapmak daha yüksek maliyet etkinliği sunabilir.<br><br>Yönetim hizmetleri kapsamında şunlar yer alır:<br><br><ul><li>Kullanıcı etkileşimini en üst seviyeye çıkarmak için özel uygulamalar</li><li>Facebook'ta benzer müşteriler bulmak üzere mevcut müşteri verilerini analiz etmek</li></ul><br><br>",
        "instruction":"",
        "_pageLevelProgress": {
        "_isEnabled": true
        }
    },
    {
        "_id":"c-144",
        "_parentId":"b-1300",
        "_type":"component",
        "_component":"text",
        "_classes":"",
        "_layout":"full",
        "title":"Çevrimiçi Dizin",
        "displayTitle":"Çevrimiçi Dizin",
        "body":"Yukarıdaki soruları cevapladıktan sonra, işletme hedeflerinize ulaşmanıza en iyi şekilde yardımcı olabilecek hizmet sağlayıcıyı bulmak için interaktif dizinimizi kullanabilirsiniz. Çevrimiçi aracımız, kendinize uygun Facebook veya Instagram Pazarlama Ortağını aradığınız süreçte çok kullanışlı bir kaynaktır.",
        "instruction":"",
        "_pageLevelProgress": {
        "_isEnabled": true
        }
    },
    {
        "_id":"c-145",
        "_parentId":"b-1300",
        "_type":"component",
        "_component":"text",
        "_classes":"",
        "_layout":"left",
        "title":"",
        "displayTitle":"",
        "body":"Bir Facebook Pazarlama Ortağı bulmak için <a href='https://facebookmarketingpartners.com/' target='new'>buraya</a> tıklayın. Bir Instagram Pazarlama Ortağı bulmak için <a href='https://instagrampartners.com/' target='new'>buraya</a> tıklayın.<br><br>Dizinde listeyi kolayca daraltarak işletmenizin hedef ve amaçlarına uyan ve ülkenizde hizmet veren Ortaklardan oluşan kısa bir liste elde edebilirsiniz. Sonuçlara tıkladığınızda Ortakların hizmet verdikleri sektör ve ülkeler, ofis konumları, sundukları hizmet türü (self servis, yönetim hizmeti veya her ikisi) dahil son derece kapsamlı bilgilere ulaşabilirsiniz. Hatta sitedeki basit bir form üzerinden kendileriyle iletişime geçebilirsiniz.",
        "instruction":"",
        "_pageLevelProgress": {
        "_isEnabled": false
        }
    },
    {
        "_id":"c-146",
        "_parentId":"b-1300",
        "_type":"component",
        "_component":"graphic",
        "_classes":"",
        "_layout":"right",
        "title":"",
        "displayTitle":"",
        "body":"",
        "instruction":"",
        "_graphic": {
        "alt": "alt text",
        "large": "course/en/images/03_choosing/directory.png",
        "small": "course/en/images/03_choosing/directory.png",
        "attribution":""
        }
    },
    {
        "_id":"c-149",
        "_parentId":"b-1450",
        "_type":"component",
        "_component":"co-jump",
        "_classes":"color-test",
        "_preLinkBody":"Şimdi, Facebook ve Instagram Pazarlama Ortaklarının işletmelerin dönüşüm yaratarak başarı yakalamasına nasıl yardımcı olduğunu görelim. Karşınızda ",
        "_linkBody":" Başarı Hikayeleri",
        "_postLinkBody":".",
        "_link":"#/id/co-60",
        "_graphic":"adapt/css/assets/icon_nextPage.png",
        "_pageLevelProgress": {
            "_isEnabled": false
        }
    },
    {
        "_id":"c-150",
        "_parentId":"b-1500",
        "_type":"component",
        "_component":"text",
        "_classes":"",
        "_layout":"full",
        "title":"BMW ve Driftrock",
        "displayTitle":"BMW ve Driftrock",
        "body":"<p align='center'><img src='course/en/images/04_success/bmw.png'/></p><br>BMW, kreatif mükemmelliği ve müşteri deneyimine ilişkin kendi standartlarını koruyarak Facebook potansiyel müşteri reklamlarının ölçeklenebilir bir reklam formatı olarak performansını görmek istiyordu. Amacı: İnsanların test sürüşleri hakkında bilgi almasını ve broşür talep etmesini sağlamak.<br><br>Facebook potansiyel müşteri reklamları, müşterilerin soru sormak ve bilgi almak için kolayca kaydolmalarını sağlayan hızlı ve kullanımı kolay bir form sunar. BMW, bu süreci daha da akıcı hale getirmek için Facebook Pazarlama Ortağı Driftrock ile birlikte çalışarak ajansın tüm potansiyel müşteri reklam çözümlerinden faydalandı.<br><br>BMW, potansiyel müşterileri mümkün olduğunca çabuk takip etmek için Driftrock'un potansiyel müşteri reklamlarına yönelik özel CRM (müşteri ilişkileri yönetimi) entegrasyonları kullanıcı arayüzünü kullandı. Bu araç, model kodlarına dönüştürmek için veri dönüşüm kurallarını ve CRM alan haritalamasını içeriyordu. Facebook potansiyel müşteri reklamlarıyla edinilen potansiyel müşteri bilgilerini izlemek ve optimize etmek son derece önemli olduğundan, BMW internet sitesine bir Facebook pikseli ekledi.<br><br>İkonik Alman otomobil üreticisi, Facebook potansiyel müşteri reklamlarına geçiş yaptıktan sonra potansiyel müşteri başına ücretini %56 düşürdü ve potansiyel müşteri sayısında 2,8 kat artış elde etti.<hr><cite>Kaynak: <a href='https://facebookmarketingpartners.com/success-stories/leading-the-way/' target='new'>Otomotivin Öncüsü - Facebook Başarı Hikayeleri</a></cite>",
        "instruction":"",
        "_pageLevelProgress": {
        "_isEnabled": true
        }
    },
    {
    "_id":"c-160",
    "_parentId":"b-1600",
    "_type":"component",
    "_component":"text",
    "_classes":"",
    "_layout":"full",
    "title":"Hawkers ve Smartly.io",
    "displayTitle":"Hawkers ve Smartly.io",
    "body":"<p align='center'><img src='course/en/images/04_success/hawkers.png'/></p><br><br>İspanya merkezli Hawkers Co. çılgın fiyatlar yerine yüksek kaliteli güneş gözlükleri ile çılgın stiller sunmak amacıyla doğrudan tüketiciye satış yapan çekici bir yeni nesil güneş gözlüğü firması.<br><br>Hawkers, marka bilinirliğini yükseltmeyi ve internetten satışları artırmayı hedefliyordu ve bunun için Facebook'taki mevcut kampanyasını tamamlamak ve İspanyol hedef kitlesinde gerçek bir etki yaratmak üzere yaz sonu promosyonunu Instagram'da yenilikçi bir şekilde başlatmak istiyordu.<br><br>Strateji ve hazırlık aşamalarında Smartly.io ile çalışan Hawkers ekibi, en çok satan güneş gözlüğü modelinin görseli üzerine insanları internet mağazasından alışveriş yapmaya teşvik eden bir yazının yerleştirildiği etkileyici bir poster oluşturdu. 48 saatlik kampanya boyunca internet sitesi üst bandında bir indirim kodu ve geri sayım yapan bir saate yer verildi.<br><br>Hawkers'ın Instagram kampanyası muhteşem bir başarı yakaladı. Reklam harcamasından potansiyel pazarlarda 3 kat ve yeniden pazarlama yapılan segmentte 11 kat gibi önemli bir yatırım getirisi elde edildi. Ayrıca aynı ay içinde yayınlanan benzer kampanyaların yarısı seviyesinde olan alışılmadık ölçüde düşük bir CPM (1000 gösterim başına ücret) yakalandı.<hr><cite>Kaynak: <a href='https://scontent-sea1-1.xx.fbcdn.net/t39.2365-6/12409812_762103250560283_16063321_n.pdf' target='new'>Hawkers - Instagram Başarı Hikayeleri</a></cite>",
    "instruction":"",
    "_pageLevelProgress": {
    "_isEnabled": true
    }
    },
    {
        "_id":"c-165",
        "_parentId":"b-1650",
        "_type":"component",
        "_component":"text",
        "_classes":"",
        "_layout":"full",
        "title":"Domain ve Brand Networks",
        "displayTitle":"Domain ve Brand Networks",
        "body":"<p align='center'><img src='course/en/images/04_success/domain.png'/></p><br>Alıcılar için araçlar ve bilgiler sunan çok platformlu çevrimiçi gayrimenkul kaynağı Domain, zaten etkili olan içerik pazarlama programını büyüterek Facebook'ta daha geniş bir potansiyel müşteri kitlesine erişmek istiyor ve satış şansı yüksek olan potansiyel müşteri sayısını artırmak üzere daha fazla müşteriden iletişim bilgilerini almak ve internet sitesine geri dönüşleri artırmak üzere internet sitesine trafik yönlendirmeyi planlıyordu.<br><br>Domain, içerik pazarlama stratejisini geliştirecek ve ekibinin daha az zamanını alacak etkin maliyetli bir kampanya yaratmak üzere Facebook Pazarlama Ortağı Brand Networks ile çalıştı.<br><br>Brand Networks, insanların Domain'in Facebook içeriklerine nasıl yanıt verdiğini izlemek için Open Signals aracını kullandı. Araç, çok iyi yanıt alan Facebook gönderilerini Facebook reklamına dönüştürüyor ve mümkün olan en geniş hedef kitleye erişmek üzere 18 yaş ve üzeri Avustralyalıların mobil ve site Haber Kaynaklarında yayınlıyordu. Brand Networks daha sonra reklamların performansını takip etmek için Optimize Now reklam yönetim yazılımını kullanarak en iyi performans gösteren reklamları öne çıkarıyor, iyi performans göstermeyenleri ise geri çekiyordu.<br><br>Avustralyalı gayrimenkul sitesi, internet sitesine trafik çekmek ve potansiyel müşteriler edinmek için Facebook gönderilerini ve Brand Networks'ün otomasyon araçlarını kullanarak önceki kampanyalara kıyasla %70 daha düşük ücretle 30 kat daha yüksek etkileşim oranı elde etti.<hr><cite>Kaynak: <a href='https://facebookmarketingpartners.com/success-stories/homing-in-on-the-perfect-post/' target='new'>Mükemmel gönderinin peşinde - Facebook Başarı Hikayeleri</a></cite>",
        "instruction":"",
        "_pageLevelProgress": {
        "_isEnabled": true
        }
    },
    {
        "_id":"c-170",
        "_parentId":"b-1700",
        "_type":"component",
        "_component":"co-jump",
        "_classes":"color-test",
        "_autoComplete":true,
        "_preLinkBody":"Bu kursu bitirmek için aşağıdaki düğmeye tıklayın. Not: Tüm modüller için durum çubuklarının tamamlandığından emin olmak için <a href='#'>buraya tıklayın</a>.<br>",
        "_linkBody":"<div style = 'text-align:center;padding:8px;'><button class='buttons-action'><b>BU KURSU BİTİRDİM</b></button></div><br> ",
        "_postLinkBody":"",
        "_link":"",
        "_pageLevelProgress": {
            "_isEnabled": false
        }
    }


]