﻿[

    {
        "_id":"co-10",
        "_parentId":"course",
        "_type":"page",
        "_classes":"",
        "title":"Genel Bakış",
        "displayTitle":"Genel Bakış",
        "pageBody": "",
        "body":"Facebook ve Instagram Pazarlama Ortağı Programını neden oluşturduğumuzu öğrenin.",
        "_graphic": {
            "alt": "",
            "src": "course/en/images/00_contentObjects/1.png",
            "image": "course/en/images/00_contentObjects/1.png"
        },
        "linkText":"Görüntüle",
        "height":"570",
            "durationLabel": "Süre:",
        "duration": "2 dk",
        "_pageLevelProgress": {
            "_isEnabled": true
        }
    }
    ,
    {
        "_id":"co-20",
        "_parentId":"course",
        "_type":"page",
        "_classes":"",
        "title":"Rozet ve Uzmanlıklar",
        "displayTitle":"Rozet ve Uzmanlıklar",
        "pageBody": "",
        "body":"Şirketlerin, yedi uzmanlığın bir veya daha fazlasında yeteneklerini kanıtlayarak Facebook veya Instagram Pazarlama Ortağı rozetini nasıl kazandığını anlayın.",
        "_graphic": {
            "alt": "",
            "src": "course/en/images/00_contentObjects/2.png",
            "image": "course/en/images/00_contentObjects/2.png"
        },
        "linkText":"Görüntüle",
        "height":"570",
            "durationLabel": "Süre:",
        "duration": "2 dk",
        "_pageLevelProgress": {
            "_isEnabled": true
        }
    }
        ,
    {
        "_id":"co-50",
        "_parentId":"course",
        "_type":"page",
        "_classes":"",
        "title":"Doğru Ortağı seçmek",
        "displayTitle":"Doğru Ortağı seçmek",
        "pageBody": "",
        "body":"İşletmenizin ihtiyaçlarına en iyi cevap verecek hizmet sağlayıcıyı seçmeden önce göz önünde bulundurmanız gereken bazı kilit noktalar.",
        "_graphic": {
            "alt": "",
            "src": "course/en/images/00_contentObjects/3.png",
            "image": "course/en/images/00_contentObjects/3.png"
        },
        "linkText":"Görüntüle",
        "height":"570",
            "durationLabel": "Süre:",
        "duration": "2 dk",
        "_pageLevelProgress": {
            "_isEnabled": true
        }
    },
    {
        "_id":"co-60",
        "_parentId":"course",
        "_type":"page",
        "_classes":"",
        "title":"Başarı Hikayeleri",
        "displayTitle":"Başarı Hikayeleri",
        "pageBody": "",
        "body":"Reklamverenlerin Facebook ve Instagram Pazarlama Ortaklarıyla çalışarak nasıl başarıya ulaştığını öğrenin.",
        "_graphic": {
            "alt": "",
            "src": "course/en/images/00_contentObjects/4.png",
            "image": "course/en/images/00_contentObjects/4.png"
        },
        "linkText":"Görüntüle",
        "height":"570",
            "durationLabel": "Süre:",
        "duration": "2 dk",
        "_pageLevelProgress": {
            "_isEnabled": true
        }
    }
]